[{
    "Id": 0,
    "CompanyId": 205156,
    "EntityId": 205167,
    "ProductId": "899df593-40ec-4716-a011-06a40cb0d366",
    "Quantity": 25,
    "QuantityOnOrder": 0,
    "QuantityInTransfer": 0,
    "MinQuantity": 8,
    "UnitId": 0
  },
  {
    "Id": 0,
    "CompanyId": 205156,
    "EntityId": 205167,
    "ProductId": "26014f03-4d99-4a17-9e26-123146a90cb3",
    "Quantity": 25,
    "QuantityOnOrder": 0,
    "QuantityInTransfer": 0,
    "MinQuantity": 4,
    "UnitId": 0
  },
  {
    "Id": 0,
    "CompanyId": 205156,
    "EntityId": 205167,
    "ProductId": "a497fbb6-531d-45c7-a668-2cf3aaf37b3e",
    "Quantity": 0,
    "QuantityOnOrder": 0,
    "QuantityInTransfer": 0,
    "MinQuantity": 8,
    "UnitId": 0
  },
  {
    "Id": 0,
    "CompanyId": 205156,
    "EntityId": 205167,
    "ProductId": "5c83b537-7ae9-4732-a74d-31f594b1351f",
    "Quantity": 25,
    "QuantityOnOrder": 0,
    "QuantityInTransfer": 0,
    "MinQuantity": 5,
    "UnitId": 0
  },
  {
    "Id": 0,
    "CompanyId": 205156,
    "EntityId": 205167,
    "ProductId": "d918433b-016e-4319-8830-43cd520b9cf2",
    "Quantity": 25,
    "QuantityOnOrder": 0,
    "QuantityInTransfer": 0,
    "MinQuantity": 6,
    "UnitId": 0
  },
  {
    "Id": 0,
    "CompanyId": 205156,
    "EntityId": 205167,
    "ProductId": "36a65472-f2a9-462c-8bd9-50aa6a179b39",
    "Quantity": 0,
    "QuantityOnOrder": 0,
    "QuantityInTransfer": 0,
    "MinQuantity": 4,
    "UnitId": 0
  },
  {
    "Id": 0,
    "CompanyId": 205156,
    "EntityId": 205167,
    "ProductId": "86ede2a0-7b5a-44dc-a154-5e05c2a5edcc",
    "Quantity": 0,
    "QuantityOnOrder": 0,
    "QuantityInTransfer": 0,
    "MinQuantity": 7,
    "UnitId": 0
  }
]